TestFailureAction 1638795632719 TranslatorTest.java FAIL
CodeEditingAction 1638795645798 Translator.java CHANGE Translator.java CLASS
EditAction 1638795645799 Translator.java 3425 11 17 0
EditAction 1638795646357 Translator.java 3425 11 17 0
TestPassAction 1638795648884 TranslatorTest.java OK
CodeEditingAction 1638795744801 Translator.java CHANGE Translator.java CLASS
EditAction 1638795744802 Translator.java 3442 11 16 0
EditAction 1638795744937 Translator.java 3442 11 16 0
EditAction 1638795745316 Translator.java 3442 11 16 0
CodeEditingAction 1638795760385 Translator.java CHANGE Translator.java CLASS
EditAction 1638795760508 Translator.java 3402 11 18 0
EditAction 1638795760886 Translator.java 3402 11 18 0
CodeEditingAction 1638795783143 Translator.java CHANGE Translator.java CLASS
EditAction 1638795783144 Translator.java 3416 11 16 0
EditAction 1638795783264 Translator.java 3416 11 16 0
EditAction 1638795783606 Translator.java 3416 11 16 0
TestFailureAction 1638795785934 TranslatorTest.java FAIL
CodeEditingAction 1638795801855 Translator.java CHANGE Translator.java CLASS
EditAction 1638795801971 Translator.java 3425 11 17 0
EditAction 1638795802318 Translator.java 3425 11 17 0
TestPassAction 1638795804378 TranslatorTest.java OK
CodeEditingAction 1638795829623 Translator.java CHANGE Translator.java CLASS
EditAction 1638795830037 Translator.java 3381 11 19 0
TestFailureAction 1638795831954 TranslatorTest.java FAIL
CodeEditingAction 1638795861163 Translator.java CHANGE Translator.java CLASS
EditAction 1638795861571 Translator.java 3417 11 19 0
TestFailureAction 1638795863501 TranslatorTest.java FAIL
EditAction 1638795904855 Translator.java 3417 11 19 0
EditAction 1638795904868 Translator.java 3417 11 19 0
EditAction 1638795905026 Translator.java 3417 11 19 0
EditAction 1638795909861 Translator.java 3417 11 19 0
EditAction 1638795910398 Translator.java 3417 11 19 0
EditAction 1638795940301 Translator.java 3417 11 19 0
EditAction 1638795940412 Translator.java 3417 11 19 0
CodeEditingAction 1638795946262 Translator.java CHANGE Translator.java CLASS
EditAction 1638795946375 Translator.java 3424 11 19 0
TestPassAction 1638795949756 TranslatorTest.java OK
